#, config_id, fitness, generation, elapsedTime
1,1,1.0,397,213.832917
2,1,1.0,427,188.0419928
3,1,1.0,430,216.8499244
4,1,1.0,436,229.7165577
5,1,1.0,1256,645.2955579
6,1,1.0,1351,785.8062536
7,1,1.0,464,215.5624702
8,1,1.0,357,206.5490401
9,1,1.0,678,413.2680541
10,1,1.0,400,177.0538583
11,2,1.0,587,304.7918366
12,2,1.0,654,421.3880396
13,2,1.0,366,147.1216715
14,2,1.0,638,419.9845177
15,2,1.0,446,221.7919651
16,2,1.0,814,501.1551535
17,2,1.0,571,361.791100899
18,2,1.0,395,192.472925401
19,2,1.0,1134,682.697716
20,2,1.0,312,155.112351
21,3,1.0,968,514.1410132
22,3,1.0,1013,577.028305
23,3,1.0,1518,783.1864776
24,3,1.0,956,493.481171
25,3,1.0,1068,599.9788822
26,3,1.0,738,416.1945123
27,3,1.0,1740,941.030535
28,3,1.0,875,427.8570891
29,3,1.0,1488,672.5393126
30,3,1.0,437,159.37578
31,4,1.0,428,111.4107168
32,4,1.0,387,80.5228334
33,4,1.0,308,69.8383224
34,4,1.0,811,210.6986858
35,4,1.0,1052,294.2072042
36,4,1.0,267,61.3913776
37,4,1.0,802,182.5719773
38,4,1.0,685,199.5169098
39,4,1.0,789,225.6457053
40,4,1.0,711,200.7734434
