#, config_id, fitness, generation, elapsedTime
1,1,1.0,188,33.908888
2,1,1.0,196,33.6752902
3,1,1.0,165,18.7876548
4,1,1.0,241,26.7171711
5,1,1.0,166,22.1624596
6,1,1.0,181,38.6603629
7,1,1.0,205,36.1988604
8,1,1.0,92,12.2897283
9,1,1.0,128,17.3529825
10,4,1.0,143,25.9235741
11,2,1.0,288,57.3497293
12,2,1.0,109,22.7341436
13,2,1.0,164,34.5703243
14,2,1.0,202,13.2421098
15,2,1.0,142,24.4348014
16,2,1.0,117,22.4534172
17,2,1.0,362,58.3768659
18,2,1.0,111,20.2658122
19,2,1.0,107,11.4040847
20,2,1.0,92,13.0980291
21,3,1.0,216,34.8919507
22,3,1.0,230,27.5634729
23,3,1.0,242,47.7294714
24,3,1.0,151,27.0587149
25,3,1.0,212,20.882021
26,3,1.0,92,16.0688575
27,3,1.0,120,14.2090298
28,3,1.0,231,43.2490703
29,3,1.0,157,31.6123742
30,3,1.0,297,50.7755341
31,4,1.0,158,12.7817316
32,4,1.0,165,13.5147432
33,4,1.0,196,15.2256218
34,4,1.0,67,6.5645863
35,4,1.0,102,8.7517762
36,4,1.0,301,35.2779468
37,4,1.0,149,8.5287629
38,4,1.0,710,73.9961134
39,4,1.0,294,27.7442852
40,4,1.0,486,52.4146185
