#, config_id, fitness, generation, elapsedTime
1,1,1.0,114,3.8087743
2,1,1.0,125,3.3809268
3,1,1.0,154,7.7006504
4,1,1.0,263,5.0801826
5,1,1.0,136,8.9609063
6,1,1.0,102,2.8923111
7,1,1.0,79,2.5049759
8,1,1.0,128,5.282414
9,1,1.0,153,3.709153
10,1,1.0,114,6.1471531
#, config_id, fitness, generation, elapsedTime
1,2,1.0,107,5.2751418
2,2,1.0,154,10.210619
3,2,1.0,98,4.544744
4,2,1.0,110,2.4624421
5,2,1.0,501,29.5213181
6,2,1.0,74,4.0382377
7,2,1.0,64,3.999315
8,2,1.0,160,7.444359
9,2,1.0,89,5.136819
10,2,1.0,212,4.5882404
#, config_id, fitness, generation, elapsedTime
1,3,1.0,53,1.8607253
2,3,1.0,104,5.3858025
3,3,1.0,128,3.9810182
4,3,1.0,97,3.1735601
5,3,1.0,201,10.6322764
6,3,1.0,241,14.8607307
7,3,1.0,248,15.0990817
8,3,1.0,264,11.684837
9,3,1.0,105,4.7579767
10,3,1.0,96,1.698314
#, config_id, fitness, generation, elapsedTime
1,4,1.0,73,1.4890961
2,4,1.0,53,1.3437496
3,4,1.0,131,3.34658
4,4,1.0,64,1.4337233
5,4,1.0,99,3.5023149
6,4,1.0,165,2.7379987
7,4,1.0,270,8.8848039
8,4,1.0,201,3.5052507
9,4,1.0,118,4.6716087
10,4,1.0,108,2.6125445
